<?xml version="1.0" encoding="utf-8"?>
<!-- Generator: Adobe Illustrator 19.2.1, SVG Export Plug-In . SVG Version: 6.00 Build 0)  -->
<svg version="1.2" baseProfile="tiny" id="Layer_1" xmlns="http://www.w3.org/2000/svg" xmlns:xlink="http://www.w3.org/1999/xlink"
	 x="0px" y="0px" width="878.5371094px" height="84.7504883px" viewBox="0 0 878.5371094 84.7504883" xml:space="preserve">
<g>
	<g>
		<path fill="#231F20" d="M128.5107422,53.5483398c-0.3720703-6.6855469,3.6201172-11.6542969,10.5830078-11.6542969
			c5.7089844,0,10.3046875,3.3427734,10.3046875,9.4726563c0,5.8037109-3.8994141,8.6826172-7.984375,11.2822266
			c-4.0839844,2.4609375-8.4941406,4.6435547-9.2363281,8.6835938h16.8955078v3.4824219h-21.4912109
			c0.6035156-7.7548828,4.5957031-10.6796875,9.2373047-13.4658203c5.5693359-3.4824219,8.4013672-5.4326172,8.4013672-10.0292969
			c0-3.5751953-2.8779297-5.9433594-6.359375-5.9433594c-4.5957031,0-6.5449219,4.2255859-6.4052734,8.171875H128.5107422z"/>
	</g>
	<g>
		<path fill="#231F20" d="M659.5107422,53.5483398c-0.3720703-6.6855469,3.6201172-11.6542969,10.5830078-11.6542969
			c5.7089844,0,10.3046875,3.3427734,10.3046875,9.4726563c0,5.8037109-3.8984375,8.6826172-7.984375,11.2822266
			c-4.0839844,2.4609375-8.4941406,4.6435547-9.2363281,8.6835938h16.8955078v3.4824219h-21.4912109
			c0.6035156-7.7548828,4.5957031-10.6796875,9.2373047-13.4658203c5.5693359-3.4824219,8.4013672-5.4326172,8.4013672-10.0292969
			c0-3.5751953-2.8779297-5.9433594-6.359375-5.9433594c-4.5957031,0-6.5449219,4.2255859-6.4052734,8.171875H659.5107422z"/>
	</g>
	<g>
		<g>
			<polyline fill="#1D1D1B" points="489.3739014,36.1667709 388.613678,36.1667709 388.613678,39.2283859 489.3739014,39.2283859 
							"/>
		</g>
		<path fill="#1D1D1B" d="M463.8779602,50.9762077v-3.4121284l22.979248-9.8664818l-22.979248-9.8728619v-3.4822769
			l26.1043091,11.9520168c0.5613403,0.2423592,0.9184875,0.797226,0.9184875,1.4031219
			c0,0.6122742-0.3571472,1.1671448-0.9184875,1.4095001L463.8779602,50.9762077z"/>
	</g>
	<g>
		<path fill="#231F20" d="M267.9882813,10.3808594h8.6757813l15.0175781,40.0634766l15.0839844-40.0634766h8.6757813v47.6757813
			h-6.0058594V18.3935547h-0.1337891l-14.8837891,39.6630859h-5.40625l-14.8828125-39.6630859h-0.1337891v39.6630859h-6.0068359
			V10.3808594z"/>
		<path fill="#231F20" d="M354.8164063,55.1186523c0,11.284668-5.0722656,16.9604492-16.0175781,16.9604492
			c-6.4746094,0-13.9492188-2.6708984-14.2832031-10.1494141h5.6738281
			c0.1992188,4.0727539,5.2714844,5.6083984,8.9433594,5.6083984c7.4082031,0,10.3447266-5.3417969,10.3447266-13.0869141
			v-2.2705078H349.34375c-1.9355469,4.206543-6.3398438,6.2763672-10.7451172,6.2763672
			c-10.2783203,0-15.4169922-8.0791016-15.4169922-17.4941406c0-8.1464844,3.9375-18.2290039,15.9511719-18.2290039
			c4.3378906,0,8.2089844,1.9365234,10.2773438,5.7426758h0.0673828v-4.9414063h5.3388672V55.1186523z M349.2109375,40.0947266
			c0-6.0761719-2.6699219-12.3525391-9.8115234-12.3525391c-7.2744141,0-10.2119141,5.9423828-10.2119141,12.5527344
			c0,6.2099609,2.2695313,13.1542969,9.7441406,13.1542969C346.4072266,53.4492188,349.2109375,46.5717773,349.2109375,40.0947266z"
			/>
	</g>
	<g>
		<path fill="#231F20" d="M802.1884766,10.3808594h17.2861328c4.1376953,0,9.8105469,0,12.6142578,1.7363281
			c3.1367188,1.8696289,5.6064453,5.2080078,5.6064453,9.9492188c0,5.074707-2.6035156,8.8808594-7.0751953,10.6835938v0.1333008
			c5.8740234,1.269043,9.0771484,5.6088867,9.0771484,11.4848633c0,6.9443359-5.0722656,13.6884766-14.4824219,13.6884766
			h-23.0263672V10.3808594z M808.5292969,30.8803711h12.6806641c7.2080078,0,10.1445313-2.5375977,10.1445313-7.6123047
			c0-6.6772461-4.6044922-7.5454102-10.1445313-7.5454102h-12.6806641V30.8803711z M808.5292969,52.7148438h15.8847656
			c5.5390625,0,8.9433594-3.2719727,8.9433594-8.546875c0-6.2099609-5.0058594-7.9458008-10.3457031-7.9458008h-14.4824219
			V52.7148438z"/>
		<path fill="#231F20" d="M876.4033203,47.105957c-1.5351563,7.6787109-6.9404297,11.7519531-14.75,11.7519531
			c-11.0126953,0-16.2177734-7.6787109-16.5517578-18.1621094c0-10.4165039,6.8076172-17.9619141,16.21875-17.9619141
			c12.2128906,0,15.9511719,11.418457,15.6171875,19.7646484h-25.8291016
			c-0.2001953,6.0097656,3.2041016,11.3515625,10.7451172,11.3515625c4.7382813,0,7.9423828-2.2036133,8.9433594-6.7441406
			H876.4033203z M870.9306641,37.4907227c-0.3339844-5.4086914-4.2714844-9.7485352-9.9443359-9.7485352
			c-5.8730469,0-9.5449219,4.4067383-9.8779297,9.7485352H870.9306641z"/>
	</g>
	<g>
		<path fill="#231F20" d="M5.2060547,9.5429688h17.2861328c4.1376953,0,9.8115234,0,12.6142578,1.7363281
			c3.1367188,1.8696289,5.6064453,5.2080078,5.6064453,9.9492188c0,5.074707-2.6025391,8.8808594-7.0751953,10.6835938v0.1333008
			c5.8740234,1.269043,9.0771484,5.6088867,9.0771484,11.4848633c0,6.9443359-5.0722656,13.6884766-14.4824219,13.6884766H5.2060547
			V9.5429688z M11.546875,30.0424805h12.6806641c7.2080078,0,10.1445313-2.5375977,10.1445313-7.6123047
			c0-6.6772461-4.6044922-7.5454102-10.1445313-7.5454102H11.546875V30.0424805z M11.546875,51.8769531h15.8847656
			c5.5390625,0,8.9433594-3.2719727,8.9433594-8.546875c0-6.2099609-5.0058594-7.9458008-10.3457031-7.9458008H11.546875V51.8769531
			z"/>
		<path fill="#231F20" d="M79.4208984,46.2680664c-1.5351563,7.6787109-6.9404297,11.7519531-14.75,11.7519531
			c-11.0117188,0-16.2177734-7.6787109-16.5517578-18.1621094c0-10.4165039,6.8076172-17.9619141,16.21875-17.9619141
			c12.2138672,0,15.9511719,11.418457,15.6171875,19.7646484H54.1259766
			c-0.2001953,6.0097656,3.2041016,11.3515625,10.7451172,11.3515625c4.7392578,0,7.9423828-2.2036133,8.9433594-6.7441406
			H79.4208984z M73.9482422,36.652832c-0.3339844-5.4086914-4.2714844-9.7485352-9.9443359-9.7485352
			c-5.8730469,0-9.5439453,4.4067383-9.8779297,9.7485352H73.9482422z"/>
		<path fill="#231F20" d="M86.7607422,9.5429688H118.0625v5.3417969H93.1015625v15.1577148h21.890625v5.3417969h-21.890625V57.21875
			h-6.3408203V9.5429688z"/>
	</g>
	<g>
		<path fill="#231F20" d="M524.6728516,9.5429688h8.6767578l15.0166016,40.0634766l15.0839844-40.0634766h8.6767578V57.21875
			h-6.0068359V17.5556641h-0.1337891L551.1025391,57.21875h-5.4052734l-14.8837891-39.6630859h-0.1337891V57.21875h-6.0068359
			V9.5429688z"/>
		<path fill="#231F20" d="M611.5019531,54.2807617c0,11.284668-5.0732422,16.9604492-16.0185547,16.9604492
			c-6.4736328,0-13.9492188-2.6708984-14.2822266-10.1494141h5.6728516
			c0.2001953,4.0727539,5.2724609,5.6083984,8.9433594,5.6083984c7.4082031,0,10.3447266-5.3417969,10.3447266-13.0869141
			v-2.2705078h-0.1337891c-1.9355469,4.206543-6.3398438,6.2763672-10.7451172,6.2763672
			c-10.2783203,0-15.4169922-8.0791016-15.4169922-17.4941406c0-8.1464844,3.9375-18.2290039,15.9511719-18.2290039
			c4.3378906,0,8.2089844,1.9365234,10.2783203,5.7426758h0.0664063v-4.9414063h5.3398438V54.2807617z M605.8955078,39.2568359
			c0-6.0761719-2.6699219-12.3525391-9.8115234-12.3525391c-7.2744141,0-10.2109375,5.9423828-10.2109375,12.5527344
			c0,6.2099609,2.2685547,13.1542969,9.7441406,13.1542969C603.0917969,52.6113281,605.8955078,45.7338867,605.8955078,39.2568359z"
			/>
		<path fill="#231F20" d="M620.9765625,9.5429688h31.3017578v5.3417969h-24.9609375v15.1577148h21.890625v5.3417969h-21.890625
			V57.21875h-6.3408203V9.5429688z"/>
	</g>
	<path fill="#1D1D1B" d="M227.3873901,40.0482101h-37.0416107v-4.3059235h37.0416107V40.0482101z M206.713623,56.4160423V19.3744259
		h4.3059235v37.0416183H206.713623z"/>
	<path fill="#1D1D1B" d="M760.0540771,38.0482101h-37.041626v-4.3059235h37.041626V38.0482101z M739.3803101,54.4160423V17.3744259
		h4.3059082v37.0416183H739.3803101z"/>
</g>
</svg>
