<?xml version="1.0" encoding="utf-8"?>
<!-- Generator: Adobe Illustrator 19.2.1, SVG Export Plug-In . SVG Version: 6.00 Build 0)  -->
<svg version="1.2" baseProfile="tiny" id="Layer_1" xmlns="http://www.w3.org/2000/svg" xmlns:xlink="http://www.w3.org/1999/xlink"
	 x="0px" y="0px" width="1001.3564453px" height="82.2460938px" viewBox="0 0 1001.3564453 82.2460938" xml:space="preserve">
<g>
	<g>
		<g>
			<polyline fill="#1D1D1B" points="534.0580444,36.78508 433.297821,36.78508 433.297821,39.8466949 534.0580444,39.8466949 			"/>
		</g>
		<path fill="#1D1D1B" d="M508.5620728,51.5945168v-3.4121323l22.979248-9.866478l-22.979248-9.8728619v-3.4822788
			l26.1043091,11.9520187c0.5613403,0.2423553,0.9185181,0.797226,0.9185181,1.4031219
			c0,0.6122742-0.3571777,1.167141-0.9185181,1.4095001L508.5620728,51.5945168z"/>
	</g>
	<g>
		<path fill="#231F20" d="M87.3955078,24.5175781c-1.4023438-6.7441406-6.6748047-10.1494141-13.3496094-10.1494141
			c-11.3457031,0-16.1503906,9.3476563-16.1503906,19.296875c0,10.8837891,4.8046875,19.9648438,16.2177734,19.9648438
			c8.2763672,0,13.2148438-5.8759766,13.7490234-13.7548828h6.3398438
			c-1.2675781,11.9521484-8.5429688,19.0966797-20.6230469,19.0966797c-14.75,0-22.0244141-10.9501953-22.0244141-24.8388672
			S59.4306641,9.0263672,74.1132813,9.0263672c9.9443359,0,18.2207031,5.3417969,19.6220703,15.4912109H87.3955078z"/>
		<path fill="#231F20" d="M131.7089844,57.703125c-1.0009766,0.6005859-2.4033203,0.9345703-4.0712891,0.9345703
			c-2.9365234,0-4.8056641-1.6025391-4.8056641-5.3417969c-3.1367188,3.7392578-7.3408203,5.3417969-12.1474609,5.3417969
			c-6.2734375,0-11.4121094-2.7373047-11.4121094-9.6816406c0-7.8125,5.8066406-9.5488281,11.6796875-10.6171875
			c6.2070313-1.2685547,11.6132813-0.734375,11.6132813-5.0742188c0-5.0078125-4.1386719-5.7421875-7.6757813-5.7421875
			c-4.8046875,0-8.3417969,1.46875-8.609375,6.5429688h-5.6728516c0.3330078-8.546875,6.8740234-11.5517578,14.6162109-11.5517578
			c6.2070313,0,12.9472656,1.4023438,12.9472656,9.4824219v17.7607422c0,2.6708984,0,3.8730469,1.8027344,3.8730469
			c0.5341797,0,1.1347656-0.1337891,1.7353516-0.3339844V57.703125z M122.4990234,40.0087891
			c-4.4052734,3.2714844-17.2197266,0.0664063-17.2197266,8.546875c0,3.7392578,3.2041016,5.0742188,6.6738281,5.0742188
			c7.4755859,0,10.5458984-4.6074219,10.5458984-7.8125V40.0087891z"/>
		<path fill="#231F20" d="M158.0693359,9.0263672c15.1503906,0,22.8261719,11.9521484,22.8261719,24.9726563
			s-7.6757813,24.9726563-22.8261719,24.9726563s-22.8261719-11.9521484-22.8261719-24.9726563
			S142.9189453,9.0263672,158.0693359,9.0263672z M158.0693359,53.6298828c11.6132813,0,16.4853516-10.015625,16.4853516-19.6308594
			s-4.8720703-19.6308594-16.4853516-19.6308594s-16.4853516,10.015625-16.4853516,19.6308594
			S146.4560547,53.6298828,158.0693359,53.6298828z"/>
	</g>
	<path fill="#1D1D1B" d="M822.0715332,38.6665192h-37.041626v-4.3059235h37.041626V38.6665192z M801.3977661,55.0343513V17.992733
		h4.3059082v37.0416183H801.3977661z"/>
	<g>
		<path fill="#231F20" d="M368.4873047,10.8759766h7.0078125l18.6210938,47.6757813h-7.0078125l-5.2060547-14.3554688h-20.15625
			l-5.3388672,14.3554688h-6.5410156L368.4873047,10.8759766z M363.7480469,38.8544922h16.1523438l-7.9423828-22.2363281h-0.1337891
			L363.7480469,38.8544922z"/>
		<path fill="#231F20" d="M398.1855469,10.8759766h5.6728516v47.6757813h-5.6728516V10.8759766z"/>
	</g>
	<g>
		<path fill="#231F20" d="M307.2695313,27.9697266c-0.5332031-9.6152344,5.2060547-16.7597656,15.2177734-16.7597656
			c8.2089844,0,14.8164063,4.8076172,14.8164063,13.6210938c0,8.3476563-5.6064453,12.4873047-11.4794922,16.2265625
			c-5.8730469,3.5390625-12.2138672,6.6767578-13.28125,12.4863281h24.2939453v5.0078125h-30.9023438
			c0.8681641-11.1503906,6.6083984-15.3574219,13.2822266-19.3642578
			c8.0087891-5.0078125,12.0800781-7.8115234,12.0800781-14.4228516c0-5.140625-4.1376953-8.546875-9.1435547-8.546875
			c-6.6074219,0-9.4101563,6.0761719-9.2099609,11.7519531H307.2695313z"/>
	</g>
	<g>
		<path fill="#231F20" d="M14.5498047,31.5087891c0.4667969,0.0664063,0.8671875,0.0664063,1.2675781,0.0664063h1.2011719
			c4.8056641,0,9.0107422-2.6699219,9.0107422-7.7451172c0-5.0078125-3.6044922-7.6123047-8.4091797-7.6123047
			c-6.140625,0-8.9443359,4.7412109-8.9443359,10.2832031H3.0029297
			c0.3339844-9.0136719,5.1396484-15.2910156,14.6171875-15.2910156c8.2089844,0,14.4160156,3.9394531,14.4160156,12.6875
			c0,4.2060547-2.8701172,7.7451172-6.5410156,9.4140625v0.1337891c5.8066406,1.2685547,8.5429688,5.8095703,8.5429688,11.4853516
			c0,9.4140625-7.4082031,14.421875-16.2851563,14.421875c-9.6103516,0-15.9511719-5.6083984-15.7509766-15.4238281h5.6728516
			C7.875,50.0712891,11.2792969,54.3447266,17.7529297,54.3447266c5.5400391,0,10.2783203-3.4716797,10.2783203-9.1474609
			c0-5.9423828-4.4716797-9.0810547-10.078125-9.0810547c-1.2011719,0-2.3359375,0.0664063-3.4033203,0.2001953V31.5087891z"/>
	</g>
	<path fill="#1D1D1B" d="M259.7381897,39.6665192H222.696579v-4.3059235h37.0416107V39.6665192z M239.0644226,56.0343513V18.992733
		h4.3059235v37.0416183H239.0644226z"/>
	<g>
		<path fill="#231F20" d="M882.8828125,31.5087891c0.4667969,0.0664063,0.8671875,0.0664063,1.2675781,0.0664063h1.2011719
			c4.8056641,0,9.0107422-2.6699219,9.0107422-7.7451172c0-5.0078125-3.6044922-7.6123047-8.4091797-7.6123047
			c-6.140625,0-8.9443359,4.7412109-8.9443359,10.2832031h-5.6728516
			c0.3339844-9.0136719,5.1396484-15.2910156,14.6171875-15.2910156c8.2089844,0,14.4160156,3.9394531,14.4160156,12.6875
			c0,4.2060547-2.8701172,7.7451172-6.5410156,9.4140625v0.1337891c5.8066406,1.2685547,8.5429688,5.8095703,8.5429688,11.4853516
			c0,9.4140625-7.4082031,14.421875-16.2851563,14.421875c-9.6103516,0-15.9511719-5.6083984-15.7509766-15.4238281h5.6728516
			c0.2001953,6.1425781,3.6044922,10.4160156,10.078125,10.4160156c5.5400391,0,10.2783203-3.4716797,10.2783203-9.1474609
			c0-5.9423828-4.4716797-9.0810547-10.078125-9.0810547c-1.2011719,0-2.3359375,0.0664063-3.4033203,0.2001953V31.5087891z"/>
	</g>
	<g>
		<path fill="#231F20" d="M956.0439453,25.2324219c-1.4023438-6.7441406-6.6748047-10.1494141-13.3496094-10.1494141
			c-11.3457031,0-16.1503906,9.3476563-16.1503906,19.296875c0,10.8847656,4.8046875,19.9648438,16.2177734,19.9648438
			c8.2763672,0,13.2148438-5.875,13.7490234-13.7548828h6.3398438
			c-1.2675781,11.9521484-8.5429688,19.0966797-20.6230469,19.0966797c-14.75,0-22.0244141-10.9501953-22.0244141-24.8388672
			s7.8759766-25.1064453,22.5585938-25.1064453c9.9443359,0,18.2207031,5.3417969,19.6220703,15.4912109H956.0439453z"/>
		<path fill="#231F20" d="M1000.3574219,58.4179688c-1.0009766,0.6005859-2.4033203,0.9345703-4.0712891,0.9345703
			c-2.9365234,0-4.8056641-1.6015625-4.8056641-5.3417969c-3.1367188,3.7402344-7.3408203,5.3417969-12.1474609,5.3417969
			c-6.2734375,0-11.4121094-2.7373047-11.4121094-9.6816406c0-7.8125,5.8066406-9.5488281,11.6796875-10.6171875
			c6.2070313-1.2675781,11.6132813-0.734375,11.6132813-5.0742188c0-5.0078125-4.1386719-5.7421875-7.6757813-5.7421875
			c-4.8046875,0-8.3417969,1.46875-8.609375,6.5429688h-5.6728516c0.3330078-8.546875,6.8740234-11.5507813,14.6162109-11.5507813
			c6.2070313,0,12.9472656,1.4023438,12.9472656,9.4814453v17.7607422c0,2.671875,0,3.8730469,1.8027344,3.8730469
			c0.5341797,0,1.1347656-0.1328125,1.7353516-0.3339844V58.4179688z M991.1474609,40.7236328
			c-4.4052734,3.2714844-17.2197266,0.0664063-17.2197266,8.546875c0,3.7392578,3.2041016,5.0742188,6.6738281,5.0742188
			c7.4755859,0,10.5458984-4.6074219,10.5458984-7.8125V40.7236328z"/>
	</g>
	<g>
		<path fill="#231F20" d="M592.8203125,9.5429688h7.0078125L618.4492188,57.21875h-7.0078125l-5.2060547-14.3564453h-20.15625
			L580.7402344,57.21875h-6.5410156L592.8203125,9.5429688z M588.0810547,37.5205078h16.1523438l-7.9423828-22.2353516h-0.1337891
			L588.0810547,37.5205078z"/>
		<path fill="#231F20" d="M622.5185547,9.5429688h5.6738281V57.21875h-5.6738281V9.5429688z"/>
	</g>
	<g>
		<path fill="#231F20" d="M639.1943359,51.0439453c-0.3710938-6.6855469,3.6210938-11.6542969,10.5830078-11.6542969
			c5.7099609,0,10.3046875,3.3427734,10.3046875,9.4726563c0,5.8027344-3.8994141,8.6816406-7.9833984,11.2822266
			c-4.0849609,2.4609375-8.4941406,4.6435547-9.2373047,8.6826172h16.8955078v3.4824219h-21.4902344
			c0.6025391-7.7539063,4.5947266-10.6796875,9.2363281-13.4648438c5.5703125-3.4824219,8.4013672-5.4326172,8.4013672-10.0292969
			c0-3.5761719-2.8779297-5.9433594-6.3583984-5.9433594c-4.5957031,0-6.5449219,4.2246094-6.40625,8.171875H639.1943359z"/>
	</g>
	<g>
		<path fill="#231F20" d="M690.3623047,8.4082031c15.1503906,0,22.8251953,11.9521484,22.8251953,24.9726563
			s-7.6748047,24.9726563-22.8251953,24.9726563s-22.8261719-11.9521484-22.8261719-24.9726563
			S675.2119141,8.4082031,690.3623047,8.4082031z M690.3623047,53.0117188c11.6132813,0,16.484375-10.015625,16.484375-19.6308594
			S701.9755859,13.75,690.3623047,13.75s-16.4863281,10.015625-16.4863281,19.6308594
			S678.7490234,53.0117188,690.3623047,53.0117188z"/>
	</g>
	<g>
		<path fill="#231F20" d="M728.6044922,53.5048828c0.3242188,0.046875,0.6035156,0.046875,0.8818359,0.046875h0.8349609
			c3.3417969,0,6.2666016-1.8574219,6.2666016-5.3867188c0-3.4824219-2.5068359-5.2929688-5.8486328-5.2929688
			c-4.2695313,0-6.2197266,3.296875-6.2197266,7.1503906h-3.9453125
			c0.2314453-6.2685547,3.5742188-10.6328125,10.1650391-10.6328125c5.7089844,0,10.0263672,2.7392578,10.0263672,8.8222656
			c0,2.9248047-1.9960938,5.3857422-4.5488281,6.546875v0.0927734c4.0380859,0.8818359,5.9414063,4.0400391,5.9414063,7.9863281
			c0,6.546875-5.1523438,10.0292969-11.3251953,10.0292969c-6.6845703,0-11.09375-3.9003906-10.9550781-10.7255859h3.9453125
			c0.1386719,4.2714844,2.5068359,7.2431641,7.0097656,7.2431641c3.8515625,0,7.1474609-2.4150391,7.1474609-6.3613281
			c0-4.1318359-3.1103516-6.3144531-7.0087891-6.3144531c-0.8359375,0-1.625,0.0458984-2.3671875,0.1396484V53.5048828z"/>
	</g>
</g>
</svg>
