<?xml version="1.0" encoding="utf-8"?>
<!-- Generator: Adobe Illustrator 19.2.1, SVG Export Plug-In . SVG Version: 6.00 Build 0)  -->
<svg version="1.2" baseProfile="tiny" id="Layer_1" xmlns="http://www.w3.org/2000/svg" xmlns:xlink="http://www.w3.org/1999/xlink"
	 x="0px" y="0px" width="1034.9394531px" height="81.6279297px" viewBox="0 0 1034.9394531 81.6279297" xml:space="preserve">
<g>
	<g>
		<g>
			<polyline fill="#1D1D1B" points="624.3734741,36.1669159 523.6132202,36.1669159 523.6132202,39.2285309 624.3734741,39.2285309 
							"/>
		</g>
		<path fill="#1D1D1B" d="M598.8775024,50.9763527v-3.4121323l22.979248-9.866478l-22.979248-9.8728619v-3.4822788
			l26.1043091,11.9520187c0.5613403,0.2423553,0.9185181,0.797226,0.9185181,1.4031219
			c0,0.6122742-0.3571777,1.167141-0.9185181,1.4095001L598.8775024,50.9763527z"/>
	</g>
	<g>
		<path fill="#231F20" d="M145.7705078,23.4980469C145.0361328,16.6210938,140.5644531,13.75,133.9570313,13.75
			c-5.40625,0-10.6787109,1.9365234-10.6787109,8.1464844c0,11.7519531,30.5009766,3.4716797,30.5009766,22.234375
			c0,10.1503906-9.9443359,14.2226563-18.6210938,14.2226563c-10.6787109,0-19.6894531-5.2744141-19.6894531-16.8261719h6.0078125
			c0,8.0126953,6.6738281,11.484375,13.8818359,11.484375c5.7392578,0,12.0810547-1.8027344,12.0810547-8.6796875
			c0-13.0878906-30.5019531-4.4746094-30.5019531-21.96875c0-9.6152344,8.5429688-13.9550781,17.2871094-13.9550781
			c9.7441406,0,17.21875,4.6074219,17.5527344,15.0898438H145.7705078z"/>
	</g>
	<g>
		<path fill="#231F20" d="M38.7109375,23.8994141C37.3085938,17.1552734,32.0361328,13.75,25.3613281,13.75
			c-11.3457031,0-16.1503906,9.3476563-16.1503906,19.296875c0,10.8847656,4.8046875,19.9648438,16.2177734,19.9648438
			c8.2763672,0,13.2148438-5.875,13.7490234-13.7548828h6.3398438C44.25,51.2089844,36.9746094,58.3535156,24.8945313,58.3535156
			c-14.75,0-22.0244141-10.9501953-22.0244141-24.8388672S10.7460938,8.4082031,25.4287109,8.4082031
			c9.9443359,0,18.2207031,5.3417969,19.6220703,15.4912109H38.7109375z"/>
		<path fill="#231F20" d="M81.0214844,57.21875h-5.3388672v-5.4755859h-0.1337891
			c-2.4023438,4.2734375-6.2070313,6.2763672-11.2128906,6.2763672c-9.0761719,0-11.8789063-5.2080078-11.8789063-12.6191406
			v-22.703125h5.671875v23.3710938c0,4.2734375,2.6699219,6.9433594,7.0087891,6.9433594
			c6.8740234,0,10.2119141-4.6074219,10.2119141-10.8164063V22.6972656h5.671875V57.21875z"/>
	</g>
	<path fill="#1D1D1B" d="M868.3869629,38.0483551h-37.041626v-4.3059235h37.041626V38.0483551z M847.7131958,54.4161873V17.3745689
		h4.3059082v37.0416183H847.7131958z"/>
	<g>
		<path fill="#231F20" d="M369.359375,24.6142578c-1.4023438-6.7441406-6.6748047-10.1494141-13.3486328-10.1494141
			c-11.3466797,0-16.1513672,9.3476563-16.1513672,19.296875c0,10.8847656,4.8046875,19.9648438,16.2177734,19.9648438
			c8.2763672,0,13.2148438-5.875,13.7490234-13.7548828h6.3408203
			c-1.2685547,11.9521484-8.5429688,19.0966797-20.6240234,19.0966797c-14.75,0-22.0244141-10.9501953-22.0244141-24.8388672
			s7.8759766-25.1064453,22.5585938-25.1064453c9.9443359,0,18.2207031,5.3417969,19.6220703,15.4912109H369.359375z"/>
		<path fill="#231F20" d="M411.6708984,57.9335938h-5.3398438v-5.4755859h-0.1328125
			c-2.4033203,4.2734375-6.2070313,6.2763672-11.2128906,6.2763672c-9.0771484,0-11.8798828-5.2080078-11.8798828-12.6191406
			v-22.703125h5.6728516v23.3710938c0,4.2734375,2.6699219,6.9433594,7.0078125,6.9433594
			c6.8740234,0,10.2119141-4.6074219,10.2119141-10.8164063V23.4121094h5.6728516V57.9335938z"/>
	</g>
	<g>
		<path fill="#231F20" d="M473.34375,9.1230469c15.1503906,0,22.8261719,11.9521484,22.8261719,24.9726563
			s-7.6757813,24.9726563-22.8261719,24.9726563s-22.8261719-11.9521484-22.8261719-24.9726563
			S458.1933594,9.1230469,473.34375,9.1230469z M473.34375,53.7265625c11.6132813,0,16.4853516-10.015625,16.4853516-19.6308594
			s-4.8720703-19.6308594-16.4853516-19.6308594s-16.4853516,10.015625-16.4853516,19.6308594
			S461.7304688,53.7265625,473.34375,53.7265625z"/>
	</g>
	<g>
		<path fill="#231F20" d="M287.5849609,27.3515625c-0.5332031-9.6152344,5.2060547-16.7597656,15.2177734-16.7597656
			c8.2089844,0,14.8164063,4.8076172,14.8164063,13.6210938c0,8.3476563-5.6064453,12.4873047-11.4794922,16.2265625
			c-5.8730469,3.5390625-12.2138672,6.6767578-13.28125,12.4863281h24.2939453v5.0078125H286.25
			c0.8681641-11.1503906,6.6083984-15.3574219,13.2822266-19.3642578
			c8.0087891-5.0078125,12.0800781-7.8115234,12.0800781-14.4228516c0-5.140625-4.1376953-8.546875-9.1435547-8.546875
			c-6.6074219,0-9.4101563,6.0761719-9.2099609,11.7519531H287.5849609z"/>
	</g>
	<path fill="#1D1D1B" d="M240.0536194,39.0483551h-37.0416107v-4.3059235h37.0416107V39.0483551z M219.3798523,55.4161873
		V18.3745689h4.3059235v37.0416183H219.3798523z"/>
	<g>
		<path fill="#231F20" d="M946.4189453,24.2128906c-0.734375-6.8769531-5.2060547-9.7480469-11.8134766-9.7480469
			c-5.40625,0-10.6787109,1.9365234-10.6787109,8.1464844c0,11.7519531,30.5009766,3.4716797,30.5009766,22.234375
			c0,10.1503906-9.9443359,14.2226563-18.6210938,14.2226563c-10.6787109,0-19.6894531-5.2744141-19.6894531-16.8261719H922.125
			c0,8.0126953,6.6738281,11.484375,13.8818359,11.484375c5.7392578,0,12.0810547-1.8027344,12.0810547-8.6796875
			c0-13.0878906-30.5019531-4.4746094-30.5019531-21.96875c0-9.6152344,8.5429688-13.9550781,17.2871094-13.9550781
			c9.7441406,0,17.21875,4.6074219,17.5527344,15.0898438H946.4189453z"/>
		<path fill="#231F20" d="M982.2578125,9.1230469c15.1503906,0,22.8251953,11.9521484,22.8251953,24.9726563
			s-7.6748047,24.9726563-22.8251953,24.9726563s-22.8261719-11.9521484-22.8261719-24.9726563
			S967.1074219,9.1230469,982.2578125,9.1230469z M982.2578125,53.7265625c11.6132813,0,16.484375-10.015625,16.484375-19.6308594
			s-4.8710938-19.6308594-16.484375-19.6308594s-16.4863281,10.015625-16.4863281,19.6308594
			S970.6445313,53.7265625,982.2578125,53.7265625z"/>
	</g>
	<g>
		<path fill="#231F20" d="M680.2792969,22.1777344c-0.5332031-4.2734375-3.4033203-7.078125-7.9414063-7.078125
			c-9.6113281,0-11.2792969,10.6835938-11.4804688,17.9619141l0.1337891,0.1337891
			c2.6689453-4.3398438,6.6748047-6.2099609,11.8134766-6.2099609c9.0761719,0,14.4824219,6.6103516,14.4824219,15.3574219
			c0,6.9443359-3.8710938,15.8916016-15.8173828,15.8916016c-14.0830078,0-16.2851563-12.8867188-16.2851563-22.7695313
			c0-13.0195313,3.9384766-25.3730469,17.4199219-25.3730469c7.8085938,0,12.6142578,4.3398438,13.3486328,12.0859375H680.2792969z
			 M661.9257813,42.6767578c0,5.8759766,3.6035156,10.5498047,9.8105469,10.5498047
			c6.140625,0,9.5449219-4.8740234,9.5449219-10.4824219c0-5.8769531-3.0703125-10.7509766-9.5449219-10.7509766
			C665.3964844,31.9931641,661.9257813,36.734375,661.9257813,42.6767578z"/>
	</g>
	<g>
		<path fill="#231F20" d="M740.359375,24.1142578c-1.4023438-6.7441406-6.6748047-10.1494141-13.3496094-10.1494141
			c-11.3457031,0-16.1503906,9.3476563-16.1503906,19.296875c0,10.8847656,4.8046875,19.9648438,16.2177734,19.9648438
			c8.2763672,0,13.2148438-5.875,13.7490234-13.7548828h6.3398438
			c-1.2675781,11.9521484-8.5429688,19.0966797-20.6230469,19.0966797c-14.75,0-22.0244141-10.9501953-22.0244141-24.8388672
			s7.8759766-25.1064453,22.5585938-25.1064453c9.9443359,0,18.2207031,5.3417969,19.6220703,15.4912109H740.359375z"/>
		<path fill="#231F20" d="M782.6699219,57.4335938h-5.3388672v-5.4755859h-0.1337891
			c-2.4023438,4.2734375-6.2070313,6.2763672-11.2128906,6.2763672c-9.0761719,0-11.8789063-5.2080078-11.8789063-12.6191406
			v-22.703125h5.671875v23.3710938c0,4.2734375,2.6699219,6.9433594,7.0087891,6.9433594
			c6.8740234,0,10.2119141-4.6074219,10.2119141-10.8164063V22.9121094h5.671875V57.4335938z"/>
	</g>
	<g>
		<path fill="#231F20" d="M87.5097656,50.4257813c-0.3710938-6.6855469,3.6210938-11.6542969,10.5830078-11.6542969
			c5.7099609,0,10.3046875,3.3427734,10.3046875,9.4726563c0,5.8027344-3.8984375,8.6816406-7.9833984,11.2822266
			c-4.0849609,2.4609375-8.4941406,4.6435547-9.2373047,8.6826172h16.8955078v3.4824219H86.5820313
			c0.6025391-7.7539063,4.5947266-10.6796875,9.2363281-13.4648438c5.5703125-3.4824219,8.4013672-5.4326172,8.4013672-10.0292969
			c0-3.5761719-2.8779297-5.9433594-6.3583984-5.9433594c-4.5957031,0-6.5449219,4.2246094-6.40625,8.171875H87.5097656z"/>
	</g>
	<g>
		<path fill="#231F20" d="M421.84375,50.4257813c-0.3720703-6.6855469,3.6201172-11.6542969,10.5820313-11.6542969
			c5.7099609,0,10.3046875,3.3427734,10.3046875,9.4726563c0,5.8027344-3.8984375,8.6816406-7.9833984,11.2822266
			c-4.0849609,2.4609375-8.4941406,4.6435547-9.2373047,8.6826172H442.40625v3.4824219h-21.4912109
			c0.6025391-7.7539063,4.5947266-10.6796875,9.2373047-13.4648438c5.5693359-3.4824219,8.4003906-5.4326172,8.4003906-10.0292969
			c0-3.5761719-2.8769531-5.9433594-6.3583984-5.9433594c-4.5957031,0-6.5449219,4.2246094-6.4052734,8.171875H421.84375z"/>
	</g>
	<g>
		<path fill="#231F20" d="M1011.1767578,50.4257813c-0.3720703-6.6855469,3.6201172-11.6542969,10.5830078-11.6542969
			c5.7089844,0,10.3046875,3.3427734,10.3046875,9.4726563c0,5.8027344-3.8984375,8.6816406-7.984375,11.2822266
			c-4.0839844,2.4609375-8.4941406,4.6435547-9.2363281,8.6826172h16.8955078v3.4824219h-21.4912109
			c0.6035156-7.7539063,4.5957031-10.6796875,9.2373047-13.4648438c5.5693359-3.4824219,8.4013672-5.4326172,8.4013672-10.0292969
			c0-3.5761719-2.8779297-5.9433594-6.359375-5.9433594c-4.5957031,0-6.5449219,4.2246094-6.4052734,8.171875H1011.1767578z"/>
	</g>
</g>
</svg>
