<?xml version="1.0" encoding="utf-8"?>
<!-- Generator: Adobe Illustrator 19.2.1, SVG Export Plug-In . SVG Version: 6.00 Build 0)  -->
<svg version="1.2" baseProfile="tiny" id="Layer_1" xmlns="http://www.w3.org/2000/svg" xmlns:xlink="http://www.w3.org/1999/xlink"
	 x="0px" y="0px" width="962.3886719px" height="84.2939453px" viewBox="0 0 962.3886719 84.2939453" xml:space="preserve">
<g>
	<g>
		<g>
			<polyline fill="#1D1D1B" points="527.3738403,37.5001564 426.6136169,37.5001564 426.6136169,40.5617714 527.3738403,40.5617714 
							"/>
		</g>
		<path fill="#1D1D1B" d="M501.8778992,52.3095932v-3.4121323l22.9792175-9.866478l-22.9792175-9.8728619v-3.4822788
			l26.1043396,11.9520187c0.5612793,0.2423553,0.918457,0.797226,0.918457,1.4031219
			c0,0.6122742-0.3571777,1.167141-0.918457,1.4095001L501.8778992,52.3095932z"/>
	</g>
	<g>
		<path fill="#231F20" d="M52.2060547,10.8759766h6.3408203v20.5h25.0947266v-20.5h6.3408203v47.6757813h-6.3408203V36.7177734
			H58.546875v21.8339844h-6.3408203V10.8759766z"/>
	</g>
	<g>
		<path fill="#231F20" d="M165.7705078,24.8310547c-0.734375-6.8769531-5.2060547-9.7480469-11.8134766-9.7480469
			c-5.40625,0-10.6787109,1.9365234-10.6787109,8.1464844c0,11.7519531,30.5009766,3.4716797,30.5009766,22.234375
			c0,10.1503906-9.9443359,14.2226563-18.6210938,14.2226563c-10.6787109,0-19.6884766-5.2744141-19.6884766-16.8261719h6.0068359
			c0,8.0126953,6.6738281,11.484375,13.8818359,11.484375c5.7402344,0,12.0810547-1.8027344,12.0810547-8.6796875
			c0-13.0878906-30.5009766-4.4746094-30.5009766-21.96875c0-9.6152344,8.5429688-13.9550781,17.2861328-13.9550781
			c9.7441406,0,17.21875,4.6074219,17.5527344,15.0898438H165.7705078z"/>
	</g>
	<g>
		<path fill="#231F20" d="M781.9365234,26.6367188c-0.5332031-9.6152344,5.2060547-16.7597656,15.2167969-16.7597656
			c8.2099609,0,14.8173828,4.8076172,14.8173828,13.6210938c0,8.3466797-5.6064453,12.4873047-11.4794922,16.2265625
			c-5.8730469,3.5380859-12.2138672,6.6767578-13.28125,12.4863281h24.2929688V57.21875h-30.9013672
			c0.8681641-11.1513672,6.6083984-15.3574219,13.2822266-19.3642578c8.0087891-5.0078125,12.0800781-7.8125,12.0800781-14.4228516
			c0-5.1416016-4.1386719-8.546875-9.1435547-8.546875c-6.6074219,0-9.4111328,6.0761719-9.2099609,11.7519531H781.9365234z"/>
	</g>
	<path fill="#1D1D1B" d="M732.0540161,39.3815956h-37.041626v-4.3059235h37.041626V39.3815956z M711.380249,55.7494278V18.7078094
		h4.3059082v37.0416183H711.380249z"/>
	<g>
		<path fill="#231F20" d="M313.4189453,25.546875c-0.734375-6.8779297-5.2050781-9.7490234-11.8125-9.7490234
			c-5.40625,0-10.6796875,1.9365234-10.6796875,8.1464844c0,11.7519531,30.5019531,3.4716797,30.5019531,22.2353516
			c0,10.1494141-9.9453125,14.2226563-18.6210938,14.2226563c-10.6796875,0-19.6894531-5.2753906-19.6894531-16.8271484H289.125
			c0,8.0126953,6.6748047,11.4853516,13.8818359,11.4853516c5.7402344,0,12.0810547-1.8037109,12.0810547-8.6806641
			c0-13.0878906-30.5009766-4.4736328-30.5009766-21.96875c0-9.6152344,8.5429688-13.9550781,17.2861328-13.9550781
			c9.7441406,0,17.2197266,4.6074219,17.5527344,15.0908203H313.4189453z"/>
		<path fill="#231F20" d="M349.2578125,10.4560547c15.1503906,0,22.8251953,11.9521484,22.8251953,24.9726563
			s-7.6748047,24.9736328-22.8251953,24.9736328s-22.8251953-11.953125-22.8251953-24.9736328
			S334.1074219,10.4560547,349.2578125,10.4560547z M349.2578125,55.0605469
			c11.6132813,0,16.4853516-10.0166016,16.4853516-19.6318359s-4.8720703-19.6308594-16.4853516-19.6308594
			c-11.6123047,0-16.4853516,10.015625-16.4853516,19.6308594S337.6455078,55.0605469,349.2578125,55.0605469z"/>
	</g>
	<g>
		<path fill="#231F20" d="M577.3652344,31.6845703c0.4677734,0.0673828,0.8681641,0.0673828,1.2685547,0.0673828h1.2011719
			c4.8046875,0,9.0097656-2.6708984,9.0097656-7.7451172c0-5.0078125-3.6035156-7.6132813-8.4091797-7.6132813
			c-6.140625,0-8.9443359,4.7421875-8.9443359,10.2832031h-5.671875
			c0.3330078-9.0136719,5.1386719-15.2910156,14.6162109-15.2910156c8.2089844,0,14.4160156,3.9394531,14.4160156,12.6875
			c0,4.2070313-2.8701172,7.7460938-6.5400391,9.4140625v0.1347656c5.8056641,1.2675781,8.5429688,5.8085938,8.5429688,11.484375
			c0,9.4150391-7.4091797,14.4228516-16.2851563,14.4228516c-9.6113281,0-15.9511719-5.6083984-15.7519531-15.4248047h5.6738281
			c0.1992188,6.1435547,3.6035156,10.4169922,10.078125,10.4169922c5.5390625,0,10.2773438-3.4716797,10.2773438-9.1474609
			c0-5.9433594-4.4707031-9.0820313-10.078125-9.0820313c-1.2011719,0-2.3359375,0.0673828-3.4033203,0.2011719V31.6845703z"/>
	</g>
	<g>
		<path fill="#231F20" d="M643.4189453,25.546875c-0.734375-6.8779297-5.2050781-9.7490234-11.8125-9.7490234
			c-5.40625,0-10.6796875,1.9365234-10.6796875,8.1464844c0,11.7519531,30.5019531,3.4716797,30.5019531,22.2353516
			c0,10.1494141-9.9453125,14.2226563-18.6210938,14.2226563c-10.6796875,0-19.6894531-5.2753906-19.6894531-16.8271484H619.125
			c0,8.0126953,6.6748047,11.4853516,13.8818359,11.4853516c5.7402344,0,12.0810547-1.8037109,12.0810547-8.6806641
			c0-13.0878906-30.5009766-4.4736328-30.5009766-21.96875c0-9.6152344,8.5429688-13.9550781,17.2861328-13.9550781
			c9.7441406,0,17.2197266,4.6074219,17.5527344,15.0908203H643.4189453z"/>
	</g>
	<g>
		<path fill="#231F20" d="M102.5107422,53.0927734c-0.3720703-6.6865234,3.6201172-11.6542969,10.5830078-11.6542969
			c5.7089844,0,10.3046875,3.3417969,10.3046875,9.4716797c0,5.8037109-3.8994141,8.6826172-7.984375,11.2822266
			c-4.0839844,2.4609375-8.4941406,4.6445313-9.2363281,8.6835938h16.8955078v3.4824219h-21.4912109
			c0.6035156-7.7539063,4.5957031-10.6796875,9.2373047-13.4648438c5.5693359-3.4824219,8.4013672-5.4335938,8.4013672-10.0292969
			c0-3.5761719-2.8779297-5.9433594-6.359375-5.9433594c-4.5957031,0-6.5449219,4.2246094-6.4052734,8.171875H102.5107422z"/>
	</g>
	<g>
		<path fill="#231F20" d="M378.5107422,53.0927734c-0.3720703-6.6865234,3.6201172-11.6542969,10.5830078-11.6542969
			c5.7089844,0,10.3046875,3.3417969,10.3046875,9.4716797c0,5.8037109-3.8994141,8.6826172-7.984375,11.2822266
			c-4.0839844,2.4609375-8.4941406,4.6445313-9.2363281,8.6835938h16.8955078v3.4824219h-21.4912109
			c0.6035156-7.7539063,4.5957031-10.6796875,9.2373047-13.4648438c5.5693359-3.4824219,8.4013672-5.4335938,8.4013672-10.0292969
			c0-3.5761719-2.8779297-5.9433594-6.359375-5.9433594c-4.5957031,0-6.5449219,4.2246094-6.4052734,8.171875H378.5107422z"/>
	</g>
	<g>
		<path fill="#231F20" d="M884.5107422,53.0927734c-0.3720703-6.6865234,3.6201172-11.6542969,10.5820313-11.6542969
			c5.7099609,0,10.3046875,3.3417969,10.3046875,9.4716797c0,5.8037109-3.8984375,8.6826172-7.9833984,11.2822266
			c-4.0849609,2.4609375-8.4941406,4.6445313-9.2373047,8.6835938h16.8964844v3.4824219h-21.4912109
			c0.6025391-7.7539063,4.5947266-10.6796875,9.2373047-13.4648438c5.5693359-3.4824219,8.4003906-5.4335938,8.4003906-10.0292969
			c0-3.5761719-2.8769531-5.9433594-6.3583984-5.9433594c-4.5957031,0-6.5449219,4.2246094-6.4052734,8.171875H884.5107422z"/>
	</g>
	<g>
		<path fill="#231F20" d="M2.9365234,26.9697266c-0.5332031-9.6152344,5.2060547-16.7597656,15.2177734-16.7597656
			c8.2089844,0,14.8164063,4.8076172,14.8164063,13.6210938c0,8.3476563-5.6064453,12.4873047-11.4794922,16.2265625
			c-5.8730469,3.5390625-12.2138672,6.6767578-13.28125,12.4863281h24.2939453v5.0078125H1.6015625
			C2.4697266,46.4013672,8.2099609,42.1943359,14.8837891,38.1875c8.0087891-5.0078125,12.0800781-7.8115234,12.0800781-14.4228516
			c0-5.140625-4.1376953-8.546875-9.1435547-8.546875c-6.6074219,0-9.4101563,6.0761719-9.2099609,11.7519531H2.9365234z"/>
	</g>
	<g>
		<path fill="#231F20" d="M833.8730469,10.8759766h6.3408203v20.5h25.09375v-20.5h6.3417969v47.6757813h-6.3417969V36.7177734
			h-25.09375v21.8339844h-6.3408203V10.8759766z"/>
	</g>
	<g>
		<path fill="#231F20" d="M937.0283203,10.7412109c15.1503906,0,22.8261719,11.9521484,22.8261719,24.9726563
			s-7.6757813,24.9726563-22.8261719,24.9726563S914.203125,48.734375,914.203125,35.7138672
			S921.8779297,10.7412109,937.0283203,10.7412109z M937.0283203,55.3447266
			c11.6132813,0,16.4863281-10.015625,16.4863281-19.6308594s-4.8730469-19.6308594-16.4863281-19.6308594
			c-11.6123047,0-16.484375,10.015625-16.484375,19.6308594S925.4160156,55.3447266,937.0283203,55.3447266z"/>
	</g>
	<path fill="#1D1D1B" d="M249.0540009,40.3815956h-37.041626v-4.3059235h37.041626V40.3815956z M228.3802338,56.7494278V19.7078094
		h4.3059235v37.0416183H228.3802338z"/>
</g>
</svg>
